Local Database Interface to GBIF • gbifdb
…
Remote data access

To begin working with GBIF data directly without downloading the data
first, simply establish a remote connection using
gbif_remote().

gbif <- gbif_remote()

We can now perform most dplyr operations:

gbif %>%
  filter(phylum == "Chordata", year > 1990) %>%
  count(class, year) %>%
  collect()
#> # A tibble: 461 × 3
#>    class     year        n
#>    <chr>    <int>    <int>
#>  1 Mammalia  2019   357036
#>  2 Amphibia  2016    54300
#>  3 Aves      1993  2909760
#>  4 Aves      2016 86862292
#>  5 Aves      2001  6321959
#>  6 Aves      1994  3110959
#>  7 Aves      1997  3862252
#>  8 Aves      2011 30081466
#>  9 Mammalia  2014   605929
#> 10 Reptilia  1999    37241
#> # … with 451 more rows
…
